\relax 
\providecommand\hyper@newdestlabel[2]{}
\providecommand\HyperFirstAtBeginDocument{\AtBeginDocument}
\HyperFirstAtBeginDocument{\ifx\hyper@anchor\@undefined
\global\let\oldcontentsline\contentsline
\gdef\contentsline#1#2#3#4{\oldcontentsline{#1}{#2}{#3}}
\global\let\oldnewlabel\newlabel
\gdef\newlabel#1#2{\newlabelxx{#1}#2}
\gdef\newlabelxx#1#2#3#4#5#6{\oldnewlabel{#1}{{#2}{#3}}}
\AtEndDocument{\ifx\hyper@anchor\@undefined
\let\contentsline\oldcontentsline
\let\newlabel\oldnewlabel
\fi}
\fi}
\global\let\hyper@last\relax 
\gdef\HyperFirstAtBeginDocument#1{#1}
\providecommand\HyField@AuxAddToFields[1]{}
\providecommand\HyField@AuxAddToCoFields[2]{}
\@writefile{toc}{\contentsline {section}{Abstract}{i}{section*.1}}
\@writefile{toc}{\contentsline {section}{Acknowledgments}{ii}{section*.2}}
\@writefile{toc}{\contentsline {section}{List of Tables}{iv}{section*.4}}
\@writefile{toc}{\contentsline {section}{List of Figures}{v}{section*.5}}
\@writefile{toc}{\contentsline {section}{Glossary}{vi}{section*.6}}
\@writefile{toc}{\contentsline {section}{\numberline {1.}Introduction}{1}{section.0.1}}
\newlabel{sec:Introduction}{{1.}{1}{Introduction}{section.0.1}{}}
\@writefile{toc}{\contentsline {subsection}{\numberline {1.1.}Overview}{1}{subsection.0.1.1}}
\@writefile{toc}{\contentsline {subsection}{\numberline {1.2.}Point 1}{1}{subsection.0.1.2}}
\@writefile{lof}{\contentsline {figure}{\numberline {1}{\ignorespaces Short Caption}}{1}{figure.caption.15}}
\providecommand*\caption@xref[2]{\@setref\relax\@undefined{#1}}
\newlabel{State Chart}{{1}{1}{Short Caption}{figure.caption.15}{}}
\@writefile{toc}{\contentsline {subsection}{\numberline {1.3.}Point 2}{1}{subsection.0.1.3}}
\@writefile{toc}{\contentsline {section}{\numberline {2.}Requirements}{2}{section.0.2}}
\newlabel{sec:Requirements}{{2.}{2}{Requirements}{section.0.2}{}}
\@writefile{toc}{\contentsline {subsection}{\numberline {2.1.}Overview}{2}{subsection.0.2.1}}
\@writefile{toc}{\contentsline {subsection}{\numberline {2.2.}Point 1}{2}{subsection.0.2.2}}
\@writefile{lof}{\contentsline {figure}{\numberline {2}{\ignorespaces Short Caption 2}}{2}{figure.caption.16}}
\newlabel{State Chart 2}{{2}{2}{Short Caption 2}{figure.caption.16}{}}
\@writefile{toc}{\contentsline {subsection}{\numberline {2.3.}Point 2}{2}{subsection.0.2.3}}
\@writefile{toc}{\contentsline {section}{\numberline {3.}Design and Implementation}{3}{section.0.3}}
\newlabel{sec:DesignImplementation}{{3.}{3}{Design and Implementation}{section.0.3}{}}
\@writefile{toc}{\contentsline {subsection}{\numberline {3.1.}Overview}{3}{subsection.0.3.1}}
\@writefile{toc}{\contentsline {subsection}{\numberline {3.2.}Point 1}{3}{subsection.0.3.2}}
\@writefile{lof}{\contentsline {figure}{\numberline {3}{\ignorespaces Short Caption 3}}{3}{figure.caption.17}}
\newlabel{State Chart 3}{{3}{3}{Short Caption 3}{figure.caption.17}{}}
\@writefile{toc}{\contentsline {subsection}{\numberline {3.3.}Point 2}{3}{subsection.0.3.3}}
\@writefile{toc}{\contentsline {section}{\numberline {4.}Bibliography}{4}{section.0.4}}
\newlabel{sec:bibliougraphy}{{4.}{4}{Bibliography}{section.0.4}{}}
\@writefile{toc}{\contentsline {section}{\numberline {5.}Appendices}{5}{section.0.5}}
\newlabel{sec:appendices}{{5.}{5}{Appendices}{section.0.5}{}}
