\contentsline {section}{Abstract}{i}{section*.1}
\contentsline {section}{Acknowledgments}{ii}{section*.2}
\contentsline {section}{List of Tables}{iv}{section*.4}
\contentsline {section}{List of Figures}{v}{section*.5}
\contentsline {section}{Glossary}{vi}{section*.6}
\contentsline {section}{\numberline {1.}Introduction}{1}{section.0.1}
\contentsline {subsection}{\numberline {1.1.}Overview}{1}{subsection.0.1.1}
\contentsline {subsection}{\numberline {1.2.}Point 1}{1}{subsection.0.1.2}
\contentsline {subsection}{\numberline {1.3.}Point 2}{1}{subsection.0.1.3}
\contentsline {section}{\numberline {2.}Requirements}{2}{section.0.2}
\contentsline {subsection}{\numberline {2.1.}Overview}{2}{subsection.0.2.1}
\contentsline {subsection}{\numberline {2.2.}Point 1}{2}{subsection.0.2.2}
\contentsline {subsection}{\numberline {2.3.}Point 2}{2}{subsection.0.2.3}
\contentsline {section}{\numberline {3.}Design and Implementation}{3}{section.0.3}
\contentsline {subsection}{\numberline {3.1.}Overview}{3}{subsection.0.3.1}
\contentsline {subsection}{\numberline {3.2.}Point 1}{3}{subsection.0.3.2}
\contentsline {subsection}{\numberline {3.3.}Point 2}{3}{subsection.0.3.3}
\contentsline {section}{\numberline {4.}Bibliography}{4}{section.0.4}
\contentsline {section}{\numberline {5.}Appendices}{5}{section.0.5}
